#
# There is insufficient memory for the Java Runtime Environment to continue.
# Native memory allocation (malloc) failed to allocate 1423760 bytes for Chunk::new
# Possible reasons:
#   The system is out of physical RAM or swap space
#   In 32 bit mode, the process size limit was hit
# Possible solutions:
#   Reduce memory load on the system
#   Increase physical memory or swap space
#   Check if swap backing store is full
#   Use 64 bit Java on a 64 bit OS
#   Decrease Java heap size (-Xmx/-Xms)
#   Decrease number of Java threads
#   Decrease Java thread stack sizes (-Xss)
#   Set larger code cache with -XX:ReservedCodeCacheSize=
# This output file may be truncated or incomplete.
#
#  Out of Memory Error (allocation.cpp:390), pid=7576, tid=7536
#
# JRE version: Java(TM) SE Runtime Environment (8.0_20-b26) (build 1.8.0_20-b26)
# Java VM: Java HotSpot(TM) 64-Bit Server VM (25.20-b23 mixed mode windows-amd64 compressed oops)
# Failed to write core dump. Minidumps are not enabled by default on client versions of Windows
#

---------------  T H R E A D  ---------------

Current thread (0x000000000852b800):  JavaThread "C2 CompilerThread1" daemon [_thread_in_native, id=7536, stack(0x0000000008c00000,0x0000000008d00000)]

Stack: [0x0000000008c00000,0x0000000008d00000]
Native frames: (J=compiled Java code, j=interpreted, Vv=VM code, C=native code)
V  [jvm.dll+0x3152fa]


Current CompileTask:
C2:  37634 1495   !   4       com.android.dx.cf.cst.ConstantPoolParser::parse0 (731 bytes)


---------------  P R O C E S S  ---------------

Java Threads: ( => current thread )
  0x0000000008751800 JavaThread "pool-1-thread-4" [_thread_in_Java, id=1564, stack(0x0000000009d00000,0x0000000009e00000)]
  0x0000000008753000 JavaThread "pool-1-thread-3" [_thread_in_Java, id=9024, stack(0x0000000009c00000,0x0000000009d00000)]
  0x0000000008740800 JavaThread "pool-1-thread-2" [_thread_in_Java, id=7340, stack(0x0000000009b00000,0x0000000009c00000)]
  0x00000000088e5800 JavaThread "pool-2-thread-1" [_thread_blocked, id=5144, stack(0x0000000009a00000,0x0000000009b00000)]
  0x00000000088f5800 JavaThread "pool-1-thread-1" [_thread_blocked, id=7544, stack(0x0000000009900000,0x0000000009a00000)]
  0x00000000085bc000 JavaThread "Service Thread" daemon [_thread_blocked, id=6876, stack(0x0000000008f00000,0x0000000009000000)]
  0x0000000008555800 JavaThread "C1 CompilerThread3" daemon [_thread_in_vm, id=5696, stack(0x0000000008e00000,0x0000000008f00000)]
  0x0000000008532800 JavaThread "C2 CompilerThread2" daemon [_thread_in_native, id=5964, stack(0x0000000008d00000,0x0000000008e00000)]
=>0x000000000852b800 JavaThread "C2 CompilerThread1" daemon [_thread_in_native, id=7536, stack(0x0000000008c00000,0x0000000008d00000)]
  0x0000000008527800 JavaThread "C2 CompilerThread0" daemon [_thread_in_native, id=9180, stack(0x0000000008b00000,0x0000000008c00000)]
  0x0000000008525000 JavaThread "Attach Listener" daemon [_thread_blocked, id=9160, stack(0x0000000008a00000,0x0000000008b00000)]
  0x0000000008524000 JavaThread "Signal Dispatcher" daemon [_thread_blocked, id=1640, stack(0x0000000008900000,0x0000000008a00000)]
  0x00000000029e7800 JavaThread "Finalizer" daemon [_thread_blocked, id=1228, stack(0x0000000008400000,0x0000000008500000)]
  0x00000000029e1000 JavaThread "Reference Handler" daemon [_thread_blocked, id=5828, stack(0x0000000008300000,0x0000000008400000)]
  0x00000000028f2800 JavaThread "main" [_thread_in_vm, id=5996, stack(0x00000000027f0000,0x00000000028f0000)]

Other Threads:
  0x0000000006508800 VMThread [stack: 0x0000000008200000,0x0000000008300000] [id=4216]
  0x00000000085bd000 WatcherThread [stack: 0x0000000009000000,0x0000000009100000] [id=3236]

VM state:not at safepoint (normal execution)

VM Mutex/Monitor currently owned by a thread: None

Heap:
 PSYoungGen      total 28672K, used 28067K [0x00000000eab00000, 0x00000000ee300000, 0x0000000100000000)
  eden space 24576K, 97% used [0x00000000eab00000,0x00000000ec26fc20,0x00000000ec300000)
  from space 4096K, 99% used [0x00000000ec700000,0x00000000ecaf9260,0x00000000ecb00000)
  to   space 4096K, 0% used [0x00000000ec300000,0x00000000ec300000,0x00000000ec700000)
 ParOldGen       total 65536K, used 3003K [0x00000000c0000000, 0x00000000c4000000, 0x00000000eab00000)
  object space 65536K, 4% used [0x00000000c0000000,0x00000000c02eee70,0x00000000c4000000)
 Metaspace       used 6077K, capacity 7024K, committed 7296K, reserved 1056768K
  class space    used 585K, capacity 616K, committed 640K, reserved 1048576K

Card table byte_map: [0x0000000002db0000,0x0000000002fc0000] byte_map_base: 0x00000000027b0000

Marking Bits: (ParMarkBitMap*) 0x000000005ce5b460
 Begin Bits: [0x0000000003920000, 0x0000000004920000)
 End Bits:   [0x0000000004920000, 0x0000000005920000)

Polling page: 0x00000000008f0000

CodeCache: size=245760Kb used=6613Kb max_used=6613Kb free=239146Kb
 bounds [0x000000000f010000, 0x000000000f690000, 0x000000001e010000]
 total_blobs=1851 nmethods=1588 adapters=177
 compilation: enabled

Compilation events (10 events):
Event: 37.219 Thread 0x0000000008555800 nmethod 1561 0x000000000f6567d0 code [0x000000000f656960, 0x000000000f656c98]
Event: 37.219 Thread 0x0000000008555800 1562       3       com.android.dx.dex.code.RopTranslator::translateAndGetResult (48 bytes)
Event: 37.220 Thread 0x0000000008555800 nmethod 1562 0x000000000f656e10 code [0x000000000f656fe0, 0x000000000f657518]
Event: 37.263 Thread 0x0000000008527800 nmethod 1528 0x000000000f65bc10 code [0x000000000f65be60, 0x000000000f65d618]
Event: 37.264 Thread 0x0000000008527800 1539   !   4       com.android.dx.cf.code.Ropper::processBlock (1101 bytes)
Event: 37.563 Thread 0x0000000008532800 nmethod 1534 0x000000000f665810 code [0x000000000f666200, 0x000000000f66b568]
Event: 37.564 Thread 0x0000000008532800 1532       4       com.android.dx.rop.code.BasicBlockList::preferredSuccessorOf (77 bytes)
Event: 37.568 Thread 0x0000000008532800 nmethod 1532 0x000000000f658110 code [0x000000000f6582a0, 0x000000000f6585b8]
Event: 37.588 Thread 0x0000000008532800 1563       4       com.android.dx.rop.cst.StdConstantPool::set (123 bytes)
Event: 37.591 Thread 0x0000000008532800 nmethod 1563 0x000000000f657950 code [0x000000000f657ac0, 0x000000000f657db8]

GC Heap History (4 events):
Event: 35.530 GC heap before
{Heap before GC invocations=1 (full 0):
 PSYoungGen      total 28672K, used 24576K [0x00000000eab00000, 0x00000000ecb00000, 0x0000000100000000)
  eden space 24576K, 100% used [0x00000000eab00000,0x00000000ec300000,0x00000000ec300000)
  from space 4096K, 0% used [0x00000000ec700000,0x00000000ec700000,0x00000000ecb00000)
  to   space 4096K, 0% used [0x00000000ec300000,0x00000000ec300000,0x00000000ec700000)
 ParOldGen       total 65536K, used 0K [0x00000000c0000000, 0x00000000c4000000, 0x00000000eab00000)
  object space 65536K, 0% used [0x00000000c0000000,0x00000000c0000000,0x00000000c4000000)
 Metaspace       used 5789K, capacity 6768K, committed 7040K, reserved 1056768K
  class space    used 584K, capacity 616K, committed 640K, reserved 1048576K
Event: 35.582 GC heap after
Heap after GC invocations=1 (full 0):
 PSYoungGen      total 28672K, used 4095K [0x00000000eab00000, 0x00000000ecb00000, 0x0000000100000000)
  eden space 24576K, 0% used [0x00000000eab00000,0x00000000eab00000,0x00000000ec300000)
  from space 4096K, 99% used [0x00000000ec300000,0x00000000ec6ffe40,0x00000000ec700000)
  to   space 4096K, 0% used [0x00000000ec700000,0x00000000ec700000,0x00000000ecb00000)
 ParOldGen       total 65536K, used 800K [0x00000000c0000000, 0x00000000c4000000, 0x00000000eab00000)
  object space 65536K, 1% used [0x00000000c0000000,0x00000000c00c8210,0x00000000c4000000)
 Metaspace       used 5789K, capacity 6768K, committed 7040K, reserved 1056768K
  class space    used 584K, capacity 616K, committed 640K, reserved 1048576K
}
Event: 36.568 GC heap before
{Heap before GC invocations=2 (full 0):
 PSYoungGen      total 28672K, used 28671K [0x00000000eab00000, 0x00000000ecb00000, 0x0000000100000000)
  eden space 24576K, 100% used [0x00000000eab00000,0x00000000ec300000,0x00000000ec300000)
  from space 4096K, 99% used [0x00000000ec300000,0x00000000ec6ffe40,0x00000000ec700000)
  to   space 4096K, 0% used [0x00000000ec700000,0x00000000ec700000,0x00000000ecb00000)
 ParOldGen       total 65536K, used 800K [0x00000000c0000000, 0x00000000c4000000, 0x00000000eab00000)
  object space 65536K, 1% used [0x00000000c0000000,0x00000000c00c8210,0x00000000c4000000)
 Metaspace       used 5995K, capacity 6960K, committed 7040K, reserved 1056768K
  class space    used 585K, capacity 616K, committed 640K, reserved 1048576K
Event: 36.589 GC heap after
Heap after GC invocations=2 (full 0):
 PSYoungGen      total 28672K, used 4068K [0x00000000eab00000, 0x00000000ee300000, 0x0000000100000000)
  eden space 24576K, 0% used [0x00000000eab00000,0x00000000eab00000,0x00000000ec300000)
  from space 4096K, 99% used [0x00000000ec700000,0x00000000ecaf9260,0x00000000ecb00000)
  to   space 4096K, 0% used [0x00000000ec300000,0x00000000ec300000,0x00000000ec700000)
 ParOldGen       total 65536K, used 3003K [0x00000000c0000000, 0x00000000c4000000, 0x00000000eab00000)
  object space 65536K, 4% used [0x00000000c0000000,0x00000000c02eee70,0x00000000c4000000)
 Metaspace       used 5995K, capacity 6960K, committed 7040K, reserved 1056768K
  class space    used 585K, capacity 616K, committed 640K, reserved 1048576K
}

Deoptimization events (1 events):
Event: 37.054 Thread 0x0000000008753000 Uncommon trap: reason=class_check action=maybe_recompile pc=0x000000000f624f6c method=com.android.dx.cf.code.RopperMachine.run(Lcom/android/dx/cf/code/Frame;II)V @ 1024

Internal exceptions (10 events):
Event: 35.006 Thread 0x0000000008751800 Exception <a 'java/security/PrivilegedActionException'> (0x00000000ebace968) thrown at [D:\re\workspace\8-2-build-windows-amd64-cygwin\jdk8u20\1074\hotspot\src\share\vm\prims\jvm.cpp, line 1275]
Event: 35.093 Thread 0x00000000028f2800 Exception <a 'java/security/PrivilegedActionException'> (0x00000000eb866d98) thrown at [D:\re\workspace\8-2-build-windows-amd64-cygwin\jdk8u20\1074\hotspot\src\share\vm\prims\jvm.cpp, line 1275]
Event: 35.104 Thread 0x0000000008753000 Exception <a 'java/security/PrivilegedActionException'> (0x00000000eb6775e8) thrown at [D:\re\workspace\8-2-build-windows-amd64-cygwin\jdk8u20\1074\hotspot\src\share\vm\prims\jvm.cpp, line 1275]
Event: 35.216 Thread 0x00000000028f2800 Exception <a 'java/security/PrivilegedActionException'> (0x00000000ebdaac90) thrown at [D:\re\workspace\8-2-build-windows-amd64-cygwin\jdk8u20\1074\hotspot\src\share\vm\prims\jvm.cpp, line 1275]
Event: 35.218 Thread 0x00000000028f2800 Exception <a 'java/security/PrivilegedActionException'> (0x00000000ebdb4098) thrown at [D:\re\workspace\8-2-build-windows-amd64-cygwin\jdk8u20\1074\hotspot\src\share\vm\prims\jvm.cpp, line 1275]
Event: 35.252 Thread 0x0000000008740800 Exception <a 'java/security/PrivilegedActionException'> (0x00000000ebd3c038) thrown at [D:\re\workspace\8-2-build-windows-amd64-cygwin\jdk8u20\1074\hotspot\src\share\vm\prims\jvm.cpp, line 1275]
Event: 35.254 Thread 0x0000000008740800 Exception <a 'java/security/PrivilegedActionException'> (0x00000000ebd44288) thrown at [D:\re\workspace\8-2-build-windows-amd64-cygwin\jdk8u20\1074\hotspot\src\share\vm\prims\jvm.cpp, line 1275]
Event: 35.287 Thread 0x00000000028f2800 Exception <a 'java/security/PrivilegedActionException'> (0x00000000ebe021a0) thrown at [D:\re\workspace\8-2-build-windows-amd64-cygwin\jdk8u20\1074\hotspot\src\share\vm\prims\jvm.cpp, line 1275]
Event: 35.512 Thread 0x0000000008753000 Exception <a 'java/security/PrivilegedActionException'> (0x00000000ec280410) thrown at [D:\re\workspace\8-2-build-windows-amd64-cygwin\jdk8u20\1074\hotspot\src\share\vm\prims\jvm.cpp, line 1275]
Event: 36.038 Thread 0x00000000028f2800 Exception <a 'java/security/PrivilegedActionException'> (0x00000000ebb78820) thrown at [D:\re\workspace\8-2-build-windows-amd64-cygwin\jdk8u20\1074\hotspot\src\share\vm\prims\jvm.cpp, line 1275]

Events (10 events):
Event: 35.582 Executing VM operation: ParallelGCFailedAllocation done
Event: 35.584 loading class sun/misc/Cleaner
Event: 35.584 loading class sun/misc/Cleaner done
Event: 36.038 loading class com/android/dx/cf/attrib/AttEnclosingMethod
Event: 36.038 loading class com/android/dx/cf/attrib/AttEnclosingMethod done
Event: 36.568 Executing VM operation: ParallelGCFailedAllocation
Event: 36.589 Executing VM operation: ParallelGCFailedAllocation done
Event: 37.054 Thread 0x0000000008753000 Uncommon trap: trap_request=0xffffffde fr.pc=0x000000000f624f6c
Event: 37.054 Thread 0x0000000008753000 DEOPT PACKING pc=0x000000000f624f6c sp=0x0000000009cfe820
Event: 37.054 Thread 0x0000000008753000 DEOPT UNPACKING pc=0x000000000f05556a sp=0x0000000009cfe7b8 mode 2


Dynamic libraries:
0x00007ff717120000 - 0x00007ff717154000 	C:\Program Files\Java\jdk1.8.0_20\bin\java.exe
0x00007ffdf56f0000 - 0x00007ffdf589c000 	C:\Windows\SYSTEM32\ntdll.dll
0x00007ffdf3ab0000 - 0x00007ffdf3bea000 	C:\Windows\system32\KERNEL32.DLL
0x00007ffdf2be0000 - 0x00007ffdf2cef000 	C:\Windows\system32\KERNELBASE.dll
0x00007ffdf1630000 - 0x00007ffdf16b8000 	C:\Windows\system32\apphelp.dll
0x00007ffde56c0000 - 0x00007ffde570f000 	C:\Windows\AppPatch\AppPatch64\AcGenral.DLL
0x00007ffdf31b0000 - 0x00007ffdf3257000 	C:\Windows\system32\msvcrt.dll
0x00007ffdf28d0000 - 0x00007ffdf28fb000 	C:\Windows\SYSTEM32\SspiCli.dll
0x00007ffdf3330000 - 0x00007ffdf3381000 	C:\Windows\system32\SHLWAPI.dll
0x00007ffdf5570000 - 0x00007ffdf56e1000 	C:\Windows\system32\USER32.dll
0x00007ffdf3590000 - 0x00007ffdf3708000 	C:\Windows\system32\ole32.dll
0x00007ffdf3d30000 - 0x00007ffdf513f000 	C:\Windows\system32\SHELL32.dll
0x00007ffdf2010000 - 0x00007ffdf202e000 	C:\Windows\SYSTEM32\USERENV.dll
0x00007ffdf3390000 - 0x00007ffdf3435000 	C:\Windows\system32\ADVAPI32.dll
0x00007ffdea070000 - 0x00007ffdea08b000 	C:\Windows\SYSTEM32\MPR.dll
0x00007ffdf3bf0000 - 0x00007ffdf3d27000 	C:\Windows\system32\RPCRT4.dll
0x00007ffdf5320000 - 0x00007ffdf5377000 	C:\Windows\SYSTEM32\sechost.dll
0x00007ffdf2f70000 - 0x00007ffdf3146000 	C:\Windows\SYSTEM32\combase.dll
0x00007ffdf3440000 - 0x00007ffdf3584000 	C:\Windows\system32\GDI32.dll
0x00007ffdf2a60000 - 0x00007ffdf2a74000 	C:\Windows\SYSTEM32\profapi.dll
0x00007ffdf1040000 - 0x00007ffdf10df000 	C:\Windows\SYSTEM32\SHCORE.dll
0x00007ffdf51f0000 - 0x00007ffdf5224000 	C:\Windows\system32\IMM32.DLL
0x00007ffdf3710000 - 0x00007ffdf3849000 	C:\Windows\system32\MSCTF.dll
0x00007ffdf2a10000 - 0x00007ffdf2a44000 	C:\Windows\system32\nvinitx.dll
0x000000000f000000 - 0x000000000f006000 	C:\Program Files\NVIDIA Corporation\CoProcManager\_etoured.dll
0x00007ffdf0be0000 - 0x00007ffdf0c0d000 	C:\Program Files\NVIDIA Corporation\CoProcManager\nvd3d9wrapx.dll
0x00007ffdf5380000 - 0x00007ffdf5554000 	C:\Windows\system32\SETUPAPI.dll
0x00007ffdf2cf0000 - 0x00007ffdf2d3a000 	C:\Windows\system32\CFGMGR32.dll
0x00007ffdf0620000 - 0x00007ffdf0642000 	C:\Program Files\NVIDIA Corporation\CoProcManager\nvdxgiwrapx.dll
0x00007ffdf0c10000 - 0x00007ffdf0e6a000 	C:\Windows\WinSxS\amd64_microsoft.windows.common-controls_6595b64144ccf1df_6.0.9600.17031_none_6242a4b3ecbb55a1\COMCTL32.dll
0x000000005c1c0000 - 0x000000005c292000 	C:\Program Files\Java\jdk1.8.0_20\jre\bin\msvcr100.dll
0x000000005c680000 - 0x000000005ced8000 	C:\Program Files\Java\jdk1.8.0_20\jre\bin\server\jvm.dll
0x00007ffdf1330000 - 0x00007ffdf1339000 	C:\Windows\SYSTEM32\WSOCK32.dll
0x00007ffdee760000 - 0x00007ffdee77f000 	C:\Windows\SYSTEM32\WINMM.dll
0x00007ffdf5560000 - 0x00007ffdf5567000 	C:\Windows\system32\PSAPI.DLL
0x00007ffdf3150000 - 0x00007ffdf31a8000 	C:\Windows\system32\WS2_32.dll
0x00007ffdedfc0000 - 0x00007ffdedfea000 	C:\Windows\SYSTEM32\WINMMBASE.dll
0x00007ffdf39f0000 - 0x00007ffdf39f9000 	C:\Windows\system32\NSI.dll
0x00007ffdf18a0000 - 0x00007ffdf18c6000 	C:\Windows\SYSTEM32\DEVOBJ.dll
0x000000005c670000 - 0x000000005c67f000 	C:\Program Files\Java\jdk1.8.0_20\jre\bin\verify.dll
0x000000005c640000 - 0x000000005c668000 	C:\Program Files\Java\jdk1.8.0_20\jre\bin\java.dll
0x000000005c620000 - 0x000000005c636000 	C:\Program Files\Java\jdk1.8.0_20\jre\bin\zip.dll
0x00007ffde93e0000 - 0x00007ffde9568000 	C:\Windows\SYSTEM32\dbghelp.dll

VM Arguments:
jvm_args: -Djava.awt.headless=true -Xmx1024M -Dfile.encoding=windows-1252 -Duser.country=US -Duser.language=en -Duser.variant 
java_command: com.android.dx.command.Main --dex --num-threads=4 --output C:\Users\USER\AndroidStudioProjects\PRORegister\app\build\intermediates\pre-dexed\debug\joda-time-2.9.4_05f646c3eb3878cb37830ebf66411e37eb699602.jar C:\Users\USER\.gradle\caches\modules-2\files-2.1\joda-time\joda-time\2.9.4\1c295b462f16702ebe720bbb08f62e1ba80da41b\joda-time-2.9.4.jar
java_class_path (initial): C:\Users\USER\AppData\Local\Android\sdk\build-tools\24.0.2\lib\dx.jar
Launcher Type: SUN_STANDARD

Environment Variables:
JAVA_HOME=C:\Program Files (x86)\Java\jdk1.7.0_45
PATH=C:\oraclexe\app\oracle\product\11.2.0\server\bin;C:\ProgramData\Oracle\Java\javapath;C:\Windows\system32;C:\Windows;C:\Windows\System32\Wbem;C:\Windows\System32\WindowsPowerShell\v1.0\;C:\Program Files\7-Zip;C:\apache-maven-3.2.3\bin;C:\Program Files (x86)\Java\jdk1.7.0_45\bin;C:\Program Files (x86)\Common Files\Autodesk Shared\;C:\adb;C:\apache-maven-3.2.3\bin;C:\Program Files (x86)\Skype\Phone\;C:\wamp\bin\php\php5.5.12;C:\ProgramData\ComposerSetup\bin;C:\HashiCorp\Vagrant\bin;C:\Program Files\Git\cmd;C:\Users\USER\AppData\Roaming\Composer\vendor\bin;E:\android-ndk-r12b-windows-x86_64\android-ndk-r12b
USERNAME=USER
OS=Windows_NT
PROCESSOR_IDENTIFIER=Intel64 Family 6 Model 58 Stepping 9, GenuineIntel



---------------  S Y S T E M  ---------------

OS: Windows 8.1 , 64 bit Build 9600 

CPU:total 8 (4 cores per cpu, 2 threads per core) family 6 model 58 stepping 9, cmov, cx8, fxsr, mmx, sse, sse2, sse3, ssse3, sse4.1, sse4.2, popcnt, avx, aes, clmul, erms, ht, tsc, tscinvbit, tscinv

Memory: 4k page, physical 6188344k(146692k free), swap 9334072k(5164k free)

vm_info: Java HotSpot(TM) 64-Bit Server VM (25.20-b23) for windows-amd64 JRE (1.8.0_20-b26), built on Jul 30 2014 13:51:23 by "java_re" with MS VC++ 10.0 (VS2010)

time: Wed Sep 28 11:34:18 2016
elapsed time: 37 seconds (0d 0h 0m 37s)

